{
    "current_page":  1,
    "data":  [
                 {
                     "id":  "37049",
                     "title":  "المجمع العلمي ينظّم محاضرةً قرآنية في أحد مضايف عشائر كربلاء",
                     "image":  "7d79075b97c796888d29ed3ddf342349.jpg",
                     "time":  "1773838029",
                     "video":  "",
                     "cat_title":  "انشطة رمضانية",
                     "text":  "نظّم المَجمَعُ العلميّ للقرآن الكريم في العتبة العبّاسية المقدّسة محاضرةً قرآنية، في أحد مضايف عشائر محافظة كربلاء المقدّسة.\n\nوقال مديرُ معهد القرآن الكريم في كربلاء التابع للمَجمَع، الشيخ جواد النصراوي: إن \"المعهد نظّم محاضرةً قرآنيةً بعنوان: (الموقف من الصراع بين الحقّ والباطل، رؤية قرآنية)، قدّمها الشيخ محمد النبهاني، وذلك ضمن مشروع المحاضرات وا"
                 },
                 {
                     "id":  "37069",
                     "title":  "أكاديمية التطوير الإداري تنظم محاضرة تخصصية عن مستويات الإدارة لطلبتها",
                     "image":  "53298648fab20cf1123760c5eeb8c286.jpg",
                     "time":  "1773833050",
                     "video":  "",
                     "cat_title":  "محاضرات",
                     "text":  "نظمت أكاديمية التطوير الإداري التابعة لقسم التطوير والتنمية المستدامة في العتبة العباسية المقدسة، محاضرة تخصصية بعنوان (مستويات الإدارة) لطلبتها.\n\nوشهدت المحاضرة طرح رؤية فلسفية وعملية عن الهياكل التنظيمية؛ من أجل تعزيز المهارات القيادية والتنظيمية لدى طلبة الأكاديمية.\n\nوقال مقدم المحاضرة السيد أحمد جابر: إنّ \"تكامل المستويات الإدارية هو سر التفوق "
                 },
                 {
                     "id":  "37061",
                     "title":  "ضمن جهوده المتواصلة.. قسم الشؤون الخدمية ينفذ حملة غسل وتنظيف لمحيط العتبة العباسية المقدسة",
                     "image":  "b86330a8b2d62bfbab15dbb6eb32abfe.jpg",
                     "time":  "1773826052",
                     "video":  "",
                     "cat_title":  "أنشطة خدمية",
                     "text":  "باشرت ملاكات قسم الشؤون الخدمية في العتبة العباسية المقدسة، تنفيذ حملة غسل وتنظيف لمحيط صحن مرقد أبي الفضل العباس (عليه السلام).\n\nجاء ذلك ضمن جهود القسم المتواصلة للحفاظ على نظافة المكان؛ لاستقبال الزائرين بأفضل صورة.\n\nوشملت الحملة أعمال غسل المناطق والشوارع المحيطة بالصحن الشريف وتنظيفها؛ من أجل توفير بيئة ملائمة للزائرين.\nrelatedinner\nوتأتي هذه ا"
                 },
                 {
                     "id":  "37056",
                     "title":  "قسم الشؤون الفكرية يختتم مسابقة نجم الأئمة (عليهم السلام) بنسختها الخامسة في بغداد",
                     "image":  "28d176b228644a5407fb34887c822707.JPG",
                     "time":  "1773821696",
                     "video":  "",
                     "cat_title":  "مسابقات",
                     "text":  "اختتم قسم الشؤون الفكرية والثقافية في العتبة العباسية المقدسة، فعاليات مسابقة نجم الأئمة (عليهم السلام) السنوية بنسختها الخامسة في العاصمة بغداد.\n\nوقال مدير مركز ملتقى القمر الثقافي التابع للقسم، الشيخ حارث الداحي: إنّ \"المركز نظم المسابقة بالتعاون مع مركز ارتقاء للتنمية المجتمعية في العاصمة بغداد بمشاركة مجموعة من الشباب، وتضمنت مجموعة من المحاور "
                 },
                 {
                     "id":  "37010",
                     "title":  "المجمع العلمي يواصل الختمة القرآنية الرمضانية المرتلة حفظًا في مقام الإمام المهدي (عجَّل الله فرجه)",
                     "image":  "e953173219f2522ed5771059db4f40cc.jpg",
                     "time":  "1773818336",
                     "video":  "",
                     "cat_title":  "أنشطة ومشاريع قرآنية",
                     "text":  "يواصل المجمع العلمي للقرآن الكريم في العتبة العباسية المقدسة إقامة الختمة القرآنية الرمضانية المرتلة حفظًا بنسختها الخامسة في مقام الإمام المهدي (عجَّل الله فرجه).\n\nوقال مسؤول وحدة التحفيظ في معهد القرآن الكريم التابع للمجمع، الشيخ علي الرويعي: إنَّ \"المعهد اختار نحو 50 طالبًا من حفظة القرآن الكريم لارتقاء منصة الختمة القرآنية المرتلة في المقام الش"
                 },
                 {
                     "id":  "37057",
                     "title":  "الحلقة 26 من جائزة العميد القرآنية تشهد مشاركة 5 قراء من الفتية ضمن المرحلة النهائية",
                     "image":  "3f051845ede03a39631b80661e4e02ad.jpg",
                     "time":  "1773778687",
                     "video":  "",
                     "cat_title":  "انشطة رمضانية",
                     "text":  "شهدت الحلقةُ السادسة والعشرون من مسابقة جائزة العميد الدولية لتلاوة القرآن الكريم بنسختها الثالثة، مشاركة خمسة قراء من فئة الفتية ضمن المرحلة النهائية.\n\nوينظّم المسابقة المَجمَعُ العلميّ للقرآن الكريم في العتبة العبّاسية المقدّسة، بمشاركة نخبةٍ من القرّاء يمثّلون 20 دولةً عربيةً وأجنبية.\n\nوتُشرِفُ على المسابقة لجنةُ تحكيمٍ دولية، تتألّف من الشيخ مح"
                 },
                 {
                     "id":  "37067",
                     "title":  "بهدف تعزيز مفاهيم الخدمة.. مركز الامتثال الوظيفي يواصل لقاءاته مع المنتسبين",
                     "image":  "2c84fc10b76d396c19063e1e9b82ba42.jpg",
                     "time":  "1773775909",
                     "video":  "",
                     "cat_title":  "اخرى",
                     "text":  "يواصل مركز الامتثال الوظيفي في العتبة العباسية المقدسة عقد لقاءاته مع المنتسبين؛ بهدف تعزيز مفاهيم الخدمة والارتقاء بالمستوى الوظيفي والفكري لمنتسبيها.\n\nوقال عضو المركز السيد علي الصفار: إنّ \"أعمال مركز الامتثال الوظيفي انطلقت بتوجيه من المتولي الشرعي للعتبة المقدسة سماحة العلّامة السيد أحمد الصافي، إذ يعمل على عقد لقاءات دورية مع منتسبي الأقسام وا"
                 },
                 {
                     "id":  "37065",
                     "title":  "العتبة العباسية المقدسة تستضيف عددًا من عوائل الشهداء للوقوف على احتياجاتهم",
                     "image":  "0f7abd4bf35d575f7a561b3bfa330ca0.jpg",
                     "time":  "1773774978",
                     "video":  "",
                     "cat_title":  "انشطة رمضانية",
                     "text":  "استقبلت العتبة العباسية المقدسة عددًا من عوائل شهداء مجزرتي سبايكر وسجن بادوش للوقوف على احتياجاتهم.\n\nوقال رئيس قسم الشؤون الفكرية والثقافية في العتبة المقدسة السيد عقيل الياسري: إنّ القسم نظّم برنامجًا لعدد من عوائل شهداء مجزرتي سبايكر وسجن بادوش، إضافةً إلى مناقشة تكريم عدد منهم ضمن فعاليات مهرجان فتوى الدفاع المقدسة الثقافي، المقرر عقده منتصف ال"
                 },
                 {
                     "id":  "37064",
                     "title":  "بحضور 270 مشاركة.. شعبة فاطمة بنت أسد تختتم محفلها الرمضاني المركزي",
                     "image":  "10cf3f72d38fdecca06ab5a8747577a5.jpg",
                     "time":  "1773770853",
                     "video":  "",
                     "cat_title":  "انشطة رمضانية",
                     "text":  "اختتمت شعبة فاطمة بنت أسد (عليها السلام) للدراسات القرآنية التابعة لمكتب المتولي الشرعي للشؤون النسوية في العتبة العباسية المقدسة، فعاليات محفلها الرمضاني المركزي.\n\nوانطلقت فعاليات المحفل منذ اليوم الأوَّل من شهر رمضان المبارك، بمشاركة نسوية واسعة من مختلف الفئات العمرية ومن أحياء متعددة في محافظة كربلاء المقدسة، وتضمّن تلاوة القرآن الكريم وقراءة ا"
                 },
                 {
                     "id":  "37055",
                     "title":  "قسم الشؤون الفكرية يصدر العدد 41 من مجلة الاستغراب الفصلية",
                     "image":  "729bddb19b95e948cf3347c4555e85da.jpg",
                     "time":  "1773767055",
                     "video":  "",
                     "cat_title":  "إصدارات",
                     "text":  "أصدر قسم الشؤون الفكرية والثقافية في العتبة العباسية المقدسة العدد 41 من مجلة الاستغراب الفصلية المحكمة.\n\nويتولى إصدار المجلة، المركز الإسلامي للدراسات الاستراتيجية التابع للقسم، وتتناول قضايا الفكر الغربي بالدراسة والتحليل.\n\nوتضمن العدد مجموعة من البحوث والدراسات العلمية المتنوعة، من بينها دراسة بعنوان: (علم النفس الضائعة: أزمة المنهجية والماهية)،"
                 },
                 {
                     "id":  "37034",
                     "title":  "المجمَع العلمي ينظّم جلسة قرآنية لطلبة الحفظ في بغداد",
                     "image":  "e2626f1a1ff1bb75dd8734ca915b727c.jpg",
                     "time":  "1773763729",
                     "video":  "",
                     "cat_title":  "انشطة رمضانية",
                     "text":  "نظّم المجمَع العلمي للقرآن الكريم في العتبة العباسية المقدسة، جلسة قرآنية لطلبة مشروع الحفظ في العاصمة بغداد، إحياءً لليالي شهر رمضان المبارك.\n\nوأشرف على الجلسة معهد القرآن الكريم في بغداد التابع للمجمَع العلمي، بالتعاون مع مؤسسة العين للرعاية الاجتماعية.\n\nوقال مسؤول وحدة النشاطات في المعهد السيد محمد عمير الساعدي: إنّ \"الجلسة أُقيمت لإحياء ليالي ش"
                 },
                 {
                     "id":  "37048",
                     "title":  "قسم الشؤون الدينية يجري تطبيقات عملية للمشتركين في دوراته التطويرية والفقهية",
                     "image":  "b6b8afb0c491d2f614b8c474b2569524.jpg",
                     "time":  "1773757129",
                     "video":  "",
                     "cat_title":  "دورات",
                     "text":  "أجرى قسم الشؤون الدينية في العتبة العباسية المقدسة تطبيقات عملية للمنتسبين المشاركين في دوراته التطويرية والفقهية.\n\nوتُقام هذه التطبيقات داخل سرداب الكف في صحن مرقد أبي الفضل العباس (عليه السلام)، وتهدف إلى تعليم المشاركين التطبيق العملي للأحكام الشرعية المتعلقة بالصلاة والوضوء والتيمم.\n\nوتستمر الدورة عشرة أيام، وتتضمن محاضرات دينية وأخلاقية يلقيها"
                 },
                 {
                     "id":  "37044",
                     "title":  "ضمن فعاليات ملتقى النورين.. اختتام مسابقة (الفتى المبدع) للخطابة والشعر الفصيح في بابل",
                     "image":  "0a9b2bec838be122756ee763be08d6b3.jpg",
                     "time":  "1773749379",
                     "video":  "",
                     "cat_title":  "مسابقات",
                     "text":  "اختتم المجمع العلمي للقرآن الكريم في العتبة العباسية المقدسة مسابقة (الفتى المبدع) للخطابة والشعر الحسيني الفصيح، ضمن فعاليات ملتقى النورين القرآني الفكري الخامس في محافظة بابل.\n\nويقيم الملتقى معهد القرآن الكريم في بابل التابع للمجمع، بالتعاون مع الأمانة الخاصة لمزار العلوية الشريفة بنت الإمام الحسن (عليهما السلام).\n\nوشهدت المسابقة مشاركة 20 متسابق"
                 },
                 {
                     "id":  "37053",
                     "title":  "متحف الكفيل يباشر صيانة المجموعة الرابعة من مقتنيات العتبة العسكرية المقدسة",
                     "image":  "38286e04e1e778535da3f9e6d243fdb7.jpg",
                     "time":  "1773746384",
                     "video":  "",
                     "cat_title":  "مقتنيات متحفية",
                     "text":  "باشر قسم متحف الكفيل للنفائس والمخطوطات في العتبة العباسية المقدسة أعمال صيانة المجموعة الرابعة من مقتنيات العتبة العسكرية المقدسة.\n\nوقال مسؤول شعبة مخزن النفائس في القسم السيد حسن هادي: إنَّ \"ملاكات القسم بدأت أعمال صيانة المجموعة الرابعة من المنسوجات، البالغ عددها تسع قطع من السجاد المتحفي الكبير\".\n\nوأضاف أنَّ \"القطع ستخضع لأعمال صيانة وترميم وتد"
                 },
                 {
                     "id":  "37016",
                     "title":  "ضمن برنامجها التبليغي اليومي.. شعبة الخطابة تنظم مجلسًا للوعظ والإرشاد",
                     "image":  "61c98c28ce12c4261aa89a953ef60511.JPG",
                     "time":  "1773740603",
                     "video":  "",
                     "cat_title":  "محاضرات",
                     "text":  "نظمت شعبة الخطابة للتبليغ الحسيني في العتبة العباسية المقدسة مجلسًا للوعظ والإرشاد ضمن برنامجها التبليغي اليومي المعد لشهر رمضان المبارك.\n\nوأقيم المجلس في صحن مرقد أبي الفضل العباس (عليه السلام) بحضور جمعٍ من الزائرين.\n\nوحاضر في المجلس السيد عمار آل يوشع الذي استعرض جانباً من سيرة الأئمة الأطهار (عليهم السلام) وفضائلهم، مؤكداً ضرورة الاقتداء بهم في"
                 },
                 {
                     "id":  "37041",
                     "title":  "قسم الشؤون الفكرية يواصل إقامة مسابقة النور الزكي الرمضانية في ذي قار",
                     "image":  "75c9c261b75434d6ae0d437009a80c45.jpg",
                     "time":  "1773736666",
                     "video":  "",
                     "cat_title":  "مسابقات",
                     "text":  "يواصل قسم الشؤون الفكرية والثقافية في العتبة العباسية المقدسة، إقامة فعاليات مسابقة (النور الزكي الرمضانية) بنسختها الثالثة، في قضاء النصر بمحافظة ذي قار.\n\nوينظم المسابقة مركز ملتقى القمر الثقافي التابع للقسم، بالتعاون مع تجمع الساقي الثقافي في المحافظة.\n\nوقال مدير المركز الشيخ حارث الداحي: إنّ \"المركز يواصل إقامة فعاليات مسابقة نور الزكي الرمضانية"
                 }
             ],
    "first_page_url":  "https://alkafeel.net/alkafeel_back_test/api/v1/articles/GetLast/16/all?page=1",
    "from":  1,
    "last_page":  2167,
    "last_page_url":  "https://alkafeel.net/alkafeel_back_test/api/v1/articles/GetLast/16/all?page=2167",
    "links":  [
                  {
                      "url":  null,
                      "label":  "\u0026laquo; Previous",
                      "active":  false
                  },
                  {
                      "url":  "https://alkafeel.net/alkafeel_back_test/api/v1/articles/GetLast/16/all?page=1",
                      "label":  "1",
                      "active":  true
                  },
                  {
                      "url":  "https://alkafeel.net/alkafeel_back_test/api/v1/articles/GetLast/16/all?page=2",
                      "label":  "2",
                      "active":  false
                  },
                  {
                      "url":  "https://alkafeel.net/alkafeel_back_test/api/v1/articles/GetLast/16/all?page=3",
                      "label":  "3",
                      "active":  false
                  },
                  {
                      "url":  "https://alkafeel.net/alkafeel_back_test/api/v1/articles/GetLast/16/all?page=4",
                      "label":  "4",
                      "active":  false
                  },
                  {
                      "url":  "https://alkafeel.net/alkafeel_back_test/api/v1/articles/GetLast/16/all?page=5",
                      "label":  "5",
                      "active":  false
                  },
                  {
                      "url":  "https://alkafeel.net/alkafeel_back_test/api/v1/articles/GetLast/16/all?page=6",
                      "label":  "6",
                      "active":  false
                  },
                  {
                      "url":  "https://alkafeel.net/alkafeel_back_test/api/v1/articles/GetLast/16/all?page=7",
                      "label":  "7",
                      "active":  false
                  },
                  {
                      "url":  "https://alkafeel.net/alkafeel_back_test/api/v1/articles/GetLast/16/all?page=8",
                      "label":  "8",
                      "active":  false
                  },
                  {
                      "url":  "https://alkafeel.net/alkafeel_back_test/api/v1/articles/GetLast/16/all?page=9",
                      "label":  "9",
                      "active":  false
                  },
                  {
                      "url":  "https://alkafeel.net/alkafeel_back_test/api/v1/articles/GetLast/16/all?page=10",
                      "label":  "10",
                      "active":  false
                  },
                  {
                      "url":  null,
                      "label":  "...",
                      "active":  false
                  },
                  {
                      "url":  "https://alkafeel.net/alkafeel_back_test/api/v1/articles/GetLast/16/all?page=2166",
                      "label":  "2166",
                      "active":  false
                  },
                  {
                      "url":  "https://alkafeel.net/alkafeel_back_test/api/v1/articles/GetLast/16/all?page=2167",
                      "label":  "2167",
                      "active":  false
                  },
                  {
                      "url":  "https://alkafeel.net/alkafeel_back_test/api/v1/articles/GetLast/16/all?page=2",
                      "label":  "Next \u0026raquo;",
                      "active":  false
                  }
              ],
    "next_page_url":  "https://alkafeel.net/alkafeel_back_test/api/v1/articles/GetLast/16/all?page=2",
    "path":  "https://alkafeel.net/alkafeel_back_test/api/v1/articles/GetLast/16/all",
    "per_page":  "16",
    "prev_page_url":  null,
    "to":  16,
    "total":  34665
}
